04 Word Frequency and Keywords
…
--

But that finding is nearly useless: any other corpus of English would look pretty much identical!

---
class: middle

.pull-left[
This is where it makes sense to remove **stop words** from the corpus: a predefined list of high-frequency function words. {tidytext}  contains a tibble of stop words that we can use for this purpose. It is called stop_words.]

.pull-right[

```
## # A tibble: 1,149 × 2
##    word        lexicon
##    <chr>       <chr>  
##  1 a           SMART  
##  2 a's         SMART  
##  3 able        SMART  
##  4 about       SMART  
##  5 above       SMART  
##  6 according   SMART  
##  7 accordingly SMART  
##  8 across      SMART  
##  9 actually    SMART  
## 10 after       SMART  
## # … with 1,139 more rows
```
…
.pull-left[
We'll run code similar to the one above, counting word frequencies, but retain the top-80 instead of the top-20 terms.

```r
top80 <- 
  corpus_tokens %>% 
  count(word, sort = T) %>% 
  slice(1:80)
```
]

.pull-right[

```
## # A tibble: 80 × 2
##    word          n
##    <chr>     <int>
##  1 covid-19     53
##  2 times        37
##  3 people       35
##  4 masks        33
##  5 mask         32
##  6 news         27
##  7 president    27
##  8 bannon       23
##  9 biden        23
## 10 black        22
## # … with 70 more rows
```
…
